{
  "project_info": {
    "project_number": "438086521700",
    "project_id": "androidcryptohelper",
    "storage_bucket": "androidcryptohelper.appspot.com"
  },
  "client": [
    {
      "client_info": {
        "mobilesdk_app_id": "1:438086521700:android:44415161028e9c35bee071",
        "android_client_info": {
          "package_name": "com.lovisgod.androidcrypto"
        }
      },
      "oauth_client": [
        {
          "client_id": "438086521700-lie67qdnc61ndram9oud0p1f0r1vf9hc.apps.googleusercontent.com",
          "client_type": 3
        }
      ],
      "api_key": [
        {
          "current_key": "AIzaSyDiskyJG8eewIqOgBMebc1RmjM3gfPIHqI"
        }
      ],
      "services": {
        "appinvite_service": {
          "other_platform_oauth_client": [
            {
              "client_id": "438086521700-lie67qdnc61ndram9oud0p1f0r1vf9hc.apps.googleusercontent.com",
              "client_type": 3
            }
          ]
        }
      }
    }
  ],
  "configuration_version": "1"
}